Workshop 5: Demographic matrix models
…
# place to store data
pop = tibble(time = 0:years,
             Nt = NA, 
             juvs = NA,
             adults = NA)

pop$Nt[pop$time == 0] = sum(p)
pop$juvs[pop$time == 0] = p[1]
pop$adults[pop$time == 0] = p[2]

pop
## # A tibble: 51 × 4
##     time    Nt  juvs adults
##    <int> <dbl> <dbl>  <dbl>
##  1     0   150    50    100
##  2     1    NA    NA     NA
##  3     2    NA    NA     NA
##  4     3    NA    NA     NA
##  5     4    NA    NA     NA
##  6     5    NA    NA     NA
##  7     6    NA    NA     NA
##  8     7    NA    NA     NA
##  9     8    NA    NA     NA
## 10     9    NA    NA     NA
## # … with 41 more rows
…
# starting population size
n = c(4264, 3, 30, 16, 25, 5)
names(n) = c("seed", "seedlings", "tiny", "small", "medium","large")

# projection with equal probabilities 
x.eq = stoch.projection(matrices = hudsonia, n0 = n, nreps = 100) %>% 
  as_tibble() %>% 
  mutate(rep = row_number(),
         total = seed + seedlings + tiny + small + medium + large,
         type = 'equal')

x.eq
## # A tibble: 100 × 9
##     seed seedlings  tiny small medium large   rep total type 
##    <dbl>     <dbl> <dbl> <dbl>  <dbl> <dbl> <int> <dbl> <chr>
##  1  516.     0.309  2.56  1.77   3.56  3.28     1  528. equal
##  2  638.     0.523  2.82  2.95   3.69  2.25     2  650. equal
##  3  414.     0.339  2.10  2.07   2.49  1.47     3  422. equal
##  4  657.     0.538  2.53  2.82   2.79  4.33     4  670. equal
##  5  322.     0.264  1.04  1.13   1.10  2.38     5  328. equal
##  6  467.     0.286  1.71  1.72   2.19  1.95     6  475. equal
##  7  450.     0.369  2.08  2.18   1.86  2.94     7  459. equal
##  8  480.     0.395  1.54  1.60   1.70  4.15     8  489. equal
##  9  551.     0.451  2.37  2.61   2.52  3.52     9  562. equal
## 10  347.     0.284  1.53  1.61   1.39  2.21    10  354. equal
## # … with 90 more rows

# unequal probabilities for projection matrices
x.uneq = stoch.projection(matrices = hudsonia, n0 = n, nreps = 100, prob = c(0.2, 0.2, 0.2, 0.4))%>% 
  as_tibble() %>% 
  mutate(rep = row_number(),
         total = seed + seedlings + tiny + small + medium + large,
         type = 'unequal')

x.uneq
## # A tibble: 100 × 9
##     seed seedlings  tiny small medium large   rep total type   
##    <dbl>     <dbl> <dbl> <dbl>  <dbl> <dbl> <int> <dbl> <chr>  
##  1 2420.     1.99   5.68  7.96  10.0  13.0      1 2459. unequal
##  2  586.     0.482  3.34  2.97   3.70  2.43     2  599. unequal
##  3  714.     0.427  3.96  2.62   4.48  4.31     3  730. unequal
##  4 1147.     0.685  3.19  1.58   4.80  9.96     4 1167. unequal
##  5 2522.     2.08   5.36  8.23   8.64 14.5      5 2561. unequal
##  6  437.     0.360  1.15  1.11   1.05  3.97     6  445. unequal
##  7 1009.     0.830  1.95  3.08   3.16  5.80     7 1024. unequal
##  8 1438.     0.879  6.01  5.87   7.14  5.84     8 1464. unequal
##  9 2459.     1.47   8.15  4.43  12.4  20.0      9 2505. unequal
## 10 2075.     1.71   6.19  8.14   8.99 11.2     10 2112. unequal
## # … with 90 more rows
…
