Workshop 7: Community data: diversity metrics
…
average_div
## # A tibble: 30 × 10
## # Groups:   STREAM [2]
##    STREAM  YEAR mean_richness sd_richness mean_H  sd_H mean_simp sd_simp
##    <chr>  <dbl>         <dbl>       <dbl>  <dbl> <dbl>     <dbl>   <dbl>
##  1 B5      2007          1.25       1.06   0.215 0.349     0.383   0.424
##  2 B5      2008          1.17       0.835  0.247 0.312     0.419   0.400
##  3 B5      2009          1.92       1.08   0.572 0.395     0.534   0.281
##  4 B5      2010          1.67       1.37   0.356 0.477     0.379   0.388
##  5 B5      2011          2.17       1.19   0.515 0.459     0.307   0.259
##  6 B5      2012          2.08       0.900  0.565 0.394     0.369   0.247
##  7 B5      2013          1.83       1.47   0.497 0.500     0.550   0.353
##  8 B5      2014          2.42       0.996  0.701 0.400     0.433   0.229
##  9 B5      2015          2.42       1.73   0.593 0.568     0.419   0.342
## 10 B5      2016          2.58       1.16   0.806 0.359     0.582   0.172
## # … with 20 more rows, and 2 more variables: mean_invS <dbl>, sd_invS <dbl>
…
