Workshop 6: Community data: diversity metrics
…
# data in wide format
shrimp_w = read_csv('data/shrimp.csv')
## Rows: 2204 Columns: 17
## ── Column specification ────────────────────────────────────────────────────────
## Delimiter: ","
## chr  (1): STREAM
## dbl (16): ...1, MONTH, YEAR, POOL, TRAP, ATY, XIPH, CRAB, MACcarc, MACcren, ...
## 
## ℹ Use `spec()` to retrieve the full column specification for this data.
## ℹ Specify the column types or set `show_col_types = FALSE` to quiet this message.

shrimp_w
## # A tibble: 2,204 × 17
##     ...1 MONTH  YEAR STREAM  POOL  TRAP   ATY  XIPH  CRAB MACcarc MACcren MAChet
##    <dbl> <dbl> <dbl> <chr>  <dbl> <dbl> <dbl> <dbl> <dbl>   <dbl>   <dbl>  <dbl>
##  1    51     2  2007 B5        -9     1     0     0     0       0       0      0
##  2    52     2  2007 B5        -9     2     0     0     0       0       0      0
##  3    53     2  2007 B5        -9     3     0     0     0       0       0      0
##  4    54     2  2007 B5        -6     1     0     0     0       1       0      0
##  5    55     2  2007 B5        -6     2     0     3     0       0       0      0
##  6    56     2  2007 B5        -6     3     0     0     0       1       0      0
##  7    57     2  2007 B5         0     1     0     7     0       0       0      0
##  8    58     2  2007 B5         0     2     0     1     0       0       0      0
##  9    59     2  2007 B5         0     3     0     4     0       0       0      0
## 10    60     2  2007 B5         0     4     0     4     0       0       0      0
## # … with 2,194 more rows, and 5 more variables: MPOEYI <dbl>, MACfau <dbl>,
## #   INNO <dbl>, SCABRA <dbl>, SAMPLED <dbl>

# convert to long format for plotting
shrimp_l = shrimp_w %>% 
  pivot_longer(cols = 7:16, 
               names_to = "Species", 
               values_to = "Count") %>% 
  select(-`...1`)

shrimp_l
## # A tibble: 22,040 × 8
##    MONTH  YEAR STREAM  POOL  TRAP SAMPLED Species Count
##    <dbl> <dbl> <chr>  <dbl> <dbl>   <dbl> <chr>   <dbl>
##  1     2  2007 B5        -9     1       1 ATY         0
##  2     2  2007 B5        -9     1       1 XIPH        0
##  3     2  2007 B5        -9     1       1 CRAB        0
##  4     2  2007 B5        -9     1       1 MACcarc     0
##  5     2  2007 B5        -9     1       1 MACcren     0
##  6     2  2007 B5        -9     1       1 MAChet      0
##  7     2  2007 B5        -9     1       1 MPOEYI      0
##  8     2  2007 B5        -9     1       1 MACfau      0
##  9     2  2007 B5        -9     1       1 INNO        0
## 10     2  2007 B5        -9     1       1 SCABRA      0
## # … with 22,030 more rows
…
# for loop
df = unique(shrimp_l[c("STREAM","MONTH","YEAR")])
df$H = NA

df
## # A tibble: 60 × 4
##    STREAM MONTH  YEAR H    
##    <chr>  <dbl> <dbl> <lgl>
##  1 B5         2  2007 NA   
##  2 B5        11  2007 NA   
##  3 QP         2  2007 NA   
##  4 QP        11  2007 NA   
##  5 QP         3  2008 NA   
##  6 B5        11  2008 NA   
##  7 B5         3  2008 NA   
##  8 QP        11  2008 NA   
##  9 QP        11  2009 NA   
## 10 QP         3  2009 NA   
## # … with 50 more rows
…
Simpson

Another popular set of indices are Simpson’s indices. The Simpson
index calculated is a dominance metric and is calculated \[D = \sum_{i=1}^S p_i^2\] It ranges between
0 and 1 with high values indicating that abundance is made up of a few
species. Its counter part \(1 - D\) is
an evenness index. The inverse \(1/D\)
is an indication of the richness in a community with uniform evenness
that would have the same level of diversity.

# for loop
df$D = NA
df
## # A tibble: 60 × 5
##    STREAM MONTH  YEAR     H D    
##    <chr>  <dbl> <dbl> <dbl> <lgl>
##  1 B5         2  2007 1.24  NA   
##  2 B5        11  2007 0.500 NA   
##  3 QP         2  2007 0.697 NA   
##  4 QP        11  2007 0.720 NA   
##  5 QP         3  2008 0.692 NA   
##  6 B5        11  2008 1.03  NA   
##  7 B5         3  2008 0.576 NA   
##  8 QP        11  2008 0.699 NA   
##  9 QP        11  2009 0.738 NA   
## 10 QP         3  2009 0.745 NA   
## # … with 50 more rows
…
