Workshop 9: Food webs: trophic networks
…
#Trophic links
tl = read_csv("data/trophic_links.csv")
## Rows: 32 Columns: 3
## ── Column specification ────────────────────────────────────────────────────────
## Delimiter: ","
## chr (2): Diet, Consumer
## dbl (1): Weight
## 
## ℹ Use `spec()` to retrieve the full column specification for this data.
## ℹ Specify the column types or set `show_col_types = FALSE` to quiet this message.

tl
## # A tibble: 32 × 3
##    Diet              Consumer       Weight
##    <chr>             <chr>           <dbl>
##  1 Phytoplankton     Zooplankton       1  
##  2 Phytoplankton     Mullet            0.3
##  3 Zooplankton       Mullet            0.7
##  4 Phytoplankton     Anchovy           0.5
##  5 Zooplankton       Anchovy           0.5
##  6 Seagrass detritus Detrivores        1  
##  7 Seagrass detritus Zoobenthivores    0.1
##  8 Detrivores        Zoobenthivores    0.3
##  9 Macroalgae        Zoobenthivores    0.4
## 10 Epiphytes         Zoobenthivores    0.2
## # … with 22 more rows
…
